{"response":{"status":"ok","userTier":"developer","total":1833,"startIndex":1801,"pageSize":100,"currentPage":19,"pages":19,"orderBy":"newest","results":[{"id":"business/2000/apr/27/rover.comment","type":"article","sectionId":"business","sectionName":"Business","webPublicationDate":"2000-04-27T00:34:33Z","webTitle":"Car workers are rightly doomed","webUrl":"https://www.theguardian.com/business/2000/apr/27/rover.comment","apiUrl":"https://content.guardianapis.com/business/2000/apr/27/rover.comment","isHosted":false,"pillarId":"pillar/news","pillarName":"News"},{"id":"politics/2000/apr/19/londonmayor.uk2","type":"article","sectionId":"politics","sectionName":"Politics","webPublicationDate":"2000-04-19T14:52:58Z","webTitle":"Improving housing, health, business and the environment in London","webUrl":"https://www.theguardian.com/politics/2000/apr/19/londonmayor.uk2","apiUrl":"https://content.guardianapis.com/politics/2000/apr/19/londonmayor.uk2","isHosted":false,"pillarId":"pillar/news","pillarName":"News"},{"id":"business/2000/apr/14/executivesalaries.personalfinancenews","type":"article","sectionId":"business","sectionName":"Business","webPublicationDate":"2000-04-13T23:00:00Z","webTitle":"BP Amoco under pressure","webUrl":"https://www.theguardian.com/business/2000/apr/14/executivesalaries.personalfinancenews","apiUrl":"https://content.guardianapis.com/business/2000/apr/14/executivesalaries.personalfinancenews","isHosted":false,"pillarId":"pillar/news","pillarName":"News"},{"id":"business/2000/apr/11/1","type":"article","sectionId":"business","sectionName":"Business","webPublicationDate":"2000-04-11T01:03:07Z","webTitle":"City briefing","webUrl":"https://www.theguardian.com/business/2000/apr/11/1","apiUrl":"https://content.guardianapis.com/business/2000/apr/11/1","isHosted":false,"pillarId":"pillar/news","pillarName":"News"},{"id":"business/2000/apr/06/bp","type":"article","sectionId":"business","sectionName":"Business","webPublicationDate":"2000-04-06T10:29:08Z","webTitle":"Pirc backs green plan to force BP out of Alaska","webUrl":"https://www.theguardian.com/business/2000/apr/06/bp","apiUrl":"https://content.guardianapis.com/business/2000/apr/06/bp","isHosted":false,"pillarId":"pillar/news","pillarName":"News"},{"id":"theguardian/2000/mar/06/guardianleaders1","type":"article","sectionId":"theguardian","sectionName":"From the Guardian","webPublicationDate":"2000-03-06T02:08:47Z","webTitle":"The next oil crisis","webUrl":"https://www.theguardian.com/theguardian/2000/mar/06/guardianleaders1","apiUrl":"https://content.guardianapis.com/theguardian/2000/mar/06/guardianleaders1","isHosted":false,"pillarId":"pillar/news","pillarName":"News"},{"id":"culture/2000/mar/06/artsfeatures","type":"article","sectionId":"global","sectionName":"Global","webPublicationDate":"2000-03-06T02:08:16Z","webTitle":"It's plantlife, but not as we know it","webUrl":"https://www.theguardian.com/culture/2000/mar/06/artsfeatures","apiUrl":"https://content.guardianapis.com/culture/2000/mar/06/artsfeatures","isHosted":false},{"id":"lifeandstyle/2000/feb/19/weekend.lindagrant","type":"article","sectionId":"lifeandstyle","sectionName":"Life and style","webPublicationDate":"2000-02-19T17:56:40Z","webTitle":"Before the deluge","webUrl":"https://www.theguardian.com/lifeandstyle/2000/feb/19/weekend.lindagrant","apiUrl":"https://content.guardianapis.com/lifeandstyle/2000/feb/19/weekend.lindagrant","isHosted":false,"pillarId":"pillar/lifestyle","pillarName":"Lifestyle"},{"id":"lifeandstyle/2000/feb/19/weekend.lindagrant1","type":"article","sectionId":"lifeandstyle","sectionName":"Life and style","webPublicationDate":"2000-02-19T17:55:46Z","webTitle":"Before the deluge (part II)","webUrl":"https://www.theguardian.com/lifeandstyle/2000/feb/19/weekend.lindagrant1","apiUrl":"https://content.guardianapis.com/lifeandstyle/2000/feb/19/weekend.lindagrant1","isHosted":false,"pillarId":"pillar/lifestyle","pillarName":"Lifestyle"},{"id":"world/2000/feb/14/2","type":"article","sectionId":"world","sectionName":"World news","webPublicationDate":"2000-02-14T01:04:40Z","webTitle":"Uneasy truce as Spain reels from racial unrest","webUrl":"https://www.theguardian.com/world/2000/feb/14/2","apiUrl":"https://content.guardianapis.com/world/2000/feb/14/2","isHosted":false,"pillarId":"pillar/news","pillarName":"News"},{"id":"business/2000/jan/27/bp","type":"article","sectionId":"business","sectionName":"Business","webPublicationDate":"2000-01-27T02:47:43Z","webTitle":"Greens take on BP Amoco","webUrl":"https://www.theguardian.com/business/2000/jan/27/bp","apiUrl":"https://content.guardianapis.com/business/2000/jan/27/bp","isHosted":false,"pillarId":"pillar/news","pillarName":"News"},{"id":"news/2000/jan/06/guardianobituaries3","type":"article","sectionId":"news","sectionName":"News","webPublicationDate":"2000-01-06T02:39:34Z","webTitle":"Bob Hill","webUrl":"https://www.theguardian.com/news/2000/jan/06/guardianobituaries3","apiUrl":"https://content.guardianapis.com/news/2000/jan/06/guardianobituaries3","isHosted":false,"pillarId":"pillar/news","pillarName":"News"},{"id":"theguardian/1999/dec/31/guardianletters","type":"article","sectionId":"theguardian","sectionName":"From the Guardian","webPublicationDate":"1999-12-31T01:17:29Z","webTitle":"Poles apart on solar cells","webUrl":"https://www.theguardian.com/theguardian/1999/dec/31/guardianletters","apiUrl":"https://content.guardianapis.com/theguardian/1999/dec/31/guardianletters","isHosted":false,"pillarId":"pillar/news","pillarName":"News"},{"id":"world/1999/dec/28/timradford","type":"article","sectionId":"world","sectionName":"World news","webPublicationDate":"1999-12-28T00:49:29Z","webTitle":"'Direct beam' boosts solar energy","webUrl":"https://www.theguardian.com/world/1999/dec/28/timradford","apiUrl":"https://content.guardianapis.com/world/1999/dec/28/timradford","isHosted":false,"pillarId":"pillar/news","pillarName":"News"},{"id":"theguardian/1999/dec/11/features.jobsmoney4","type":"article","sectionId":"environment","sectionName":"Environment","webPublicationDate":"1999-12-11T00:42:15Z","webTitle":"The techno-house is closer than you think","webUrl":"https://www.theguardian.com/theguardian/1999/dec/11/features.jobsmoney4","apiUrl":"https://content.guardianapis.com/theguardian/1999/dec/11/features.jobsmoney4","isHosted":false,"pillarId":"pillar/news","pillarName":"News"},{"id":"environment/1999/oct/14/energy.renewableenergy","type":"article","sectionId":"environment","sectionName":"Environment","webPublicationDate":"1999-10-14T14:38:36Z","webTitle":"What happens next?","webUrl":"https://www.theguardian.com/environment/1999/oct/14/energy.renewableenergy","apiUrl":"https://content.guardianapis.com/environment/1999/oct/14/energy.renewableenergy","isHosted":false,"pillarId":"pillar/news","pillarName":"News"},{"id":"environment/1999/sep/26/energy.renewableenergy","type":"article","sectionId":"environment","sectionName":"Environment","webPublicationDate":"1999-09-26T12:30:09Z","webTitle":"What is renewable energy?","webUrl":"https://www.theguardian.com/environment/1999/sep/26/energy.renewableenergy","apiUrl":"https://content.guardianapis.com/environment/1999/sep/26/energy.renewableenergy","isHosted":false,"pillarId":"pillar/news","pillarName":"News"},{"id":"society/1999/sep/22/guardiansocietysupplement3","type":"article","sectionId":"society","sectionName":"Society","webPublicationDate":"1999-09-22T01:54:01Z","webTitle":"Shelf life","webUrl":"https://www.theguardian.com/society/1999/sep/22/guardiansocietysupplement3","apiUrl":"https://content.guardianapis.com/society/1999/sep/22/guardiansocietysupplement3","isHosted":false,"pillarId":"pillar/news","pillarName":"News"},{"id":"theobserver/1999/sep/19/life1.lifemagazine6","type":"article","sectionId":"theobserver","sectionName":"From the Observer","webPublicationDate":"1999-09-19T22:37:43Z","webTitle":"Forward thinking","webUrl":"https://www.theguardian.com/theobserver/1999/sep/19/life1.lifemagazine6","apiUrl":"https://content.guardianapis.com/theobserver/1999/sep/19/life1.lifemagazine6","isHosted":false,"pillarId":"pillar/news","pillarName":"News"},{"id":"environment/1999/sep/13/energy.business","type":"article","sectionId":"environment","sectionName":"Environment","webPublicationDate":"1999-09-13T15:30:13Z","webTitle":"Useful links","webUrl":"https://www.theguardian.com/environment/1999/sep/13/energy.business","apiUrl":"https://content.guardianapis.com/environment/1999/sep/13/energy.business","isHosted":false,"pillarId":"pillar/news","pillarName":"News"},{"id":"environment/1999/sep/10/energy.renewableenergy1","type":"article","sectionId":"environment","sectionName":"Environment","webPublicationDate":"1999-09-10T18:33:17Z","webTitle":"Renewable energy and the politicians","webUrl":"https://www.theguardian.com/environment/1999/sep/10/energy.renewableenergy1","apiUrl":"https://content.guardianapis.com/environment/1999/sep/10/energy.renewableenergy1","isHosted":false,"pillarId":"pillar/news","pillarName":"News"},{"id":"news/1999/sep/03/guardianobituaries1","type":"article","sectionId":"news","sectionName":"News","webPublicationDate":"1999-09-03T07:59:19Z","webTitle":"David Hall","webUrl":"https://www.theguardian.com/news/1999/sep/03/guardianobituaries1","apiUrl":"https://content.guardianapis.com/news/1999/sep/03/guardianobituaries1","isHosted":false,"pillarId":"pillar/news","pillarName":"News"},{"id":"science/1999/aug/16/spaceexploration","type":"article","sectionId":"science","sectionName":"Science","webPublicationDate":"1999-08-16T12:02:09Z","webTitle":"Plutonium-powered spacecraft to zoom by Earth on way to Saturn","webUrl":"https://www.theguardian.com/science/1999/aug/16/spaceexploration","apiUrl":"https://content.guardianapis.com/science/1999/aug/16/spaceexploration","isHosted":false,"pillarId":"pillar/news","pillarName":"News"},{"id":"science/1999/aug/11/eclipse.guardianleaders","type":"article","sectionId":"science","sectionName":"Science","webPublicationDate":"1999-08-11T00:23:03Z","webTitle":"Our friend the sun","webUrl":"https://www.theguardian.com/science/1999/aug/11/eclipse.guardianleaders","apiUrl":"https://content.guardianapis.com/science/1999/aug/11/eclipse.guardianleaders","isHosted":false,"pillarId":"pillar/news","pillarName":"News"},{"id":"world/1999/jul/08/6","type":"article","sectionId":"world","sectionName":"World news","webPublicationDate":"1999-07-08T00:46:59Z","webTitle":"Silicon Valley East rises","webUrl":"https://www.theguardian.com/world/1999/jul/08/6","apiUrl":"https://content.guardianapis.com/world/1999/jul/08/6","isHosted":false,"pillarId":"pillar/news","pillarName":"News"},{"id":"society/1999/jun/23/environment.business","type":"article","sectionId":"society","sectionName":"Society","webPublicationDate":"1999-06-23T13:39:41Z","webTitle":"Solar's day dawning","webUrl":"https://www.theguardian.com/society/1999/jun/23/environment.business","apiUrl":"https://content.guardianapis.com/society/1999/jun/23/environment.business","isHosted":false,"pillarId":"pillar/news","pillarName":"News"},{"id":"news/1999/jun/22/guardianobituaries","type":"article","sectionId":"news","sectionName":"News","webPublicationDate":"1999-06-22T00:34:29Z","webTitle":"Alan Wellburn","webUrl":"https://www.theguardian.com/news/1999/jun/22/guardianobituaries","apiUrl":"https://content.guardianapis.com/news/1999/jun/22/guardianobituaries","isHosted":false,"pillarId":"pillar/news","pillarName":"News"},{"id":"world/1999/may/29/uk.johnvidal","type":"article","sectionId":"world","sectionName":"World news","webPublicationDate":"1999-05-29T00:35:19Z","webTitle":"Muddling along as pests and pollution pile up","webUrl":"https://www.theguardian.com/world/1999/may/29/uk.johnvidal","apiUrl":"https://content.guardianapis.com/world/1999/may/29/uk.johnvidal","isHosted":false,"pillarId":"pillar/news","pillarName":"News"},{"id":"business/1999/mar/29/columnists.guardiancolumnists1","type":"article","sectionId":"business","sectionName":"Business","webPublicationDate":"1999-03-29T14:21:53Z","webTitle":"Economics Notebook: Shrewd use of tax take could eclipse Opec's power","webUrl":"https://www.theguardian.com/business/1999/mar/29/columnists.guardiancolumnists1","apiUrl":"https://content.guardianapis.com/business/1999/mar/29/columnists.guardiancolumnists1","isHosted":false,"pillarId":"pillar/news","pillarName":"News"},{"id":"lifeandstyle/1999/mar/11/consumerpages5","type":"article","sectionId":"lifeandstyle","sectionName":"Life and style","webPublicationDate":"1999-03-11T16:27:56Z","webTitle":"The green grossers","webUrl":"https://www.theguardian.com/lifeandstyle/1999/mar/11/consumerpages5","apiUrl":"https://content.guardianapis.com/lifeandstyle/1999/mar/11/consumerpages5","isHosted":false,"pillarId":"pillar/lifestyle","pillarName":"Lifestyle"},{"id":"science/1999/feb/10/spaceexploration.society","type":"article","sectionId":"science","sectionName":"Science","webPublicationDate":"1999-02-10T18:37:40Z","webTitle":"Blinded by light","webUrl":"https://www.theguardian.com/science/1999/feb/10/spaceexploration.society","apiUrl":"https://content.guardianapis.com/science/1999/feb/10/spaceexploration.society","isHosted":false,"pillarId":"pillar/news","pillarName":"News"},{"id":"technology/1999/jan/28/onlinesupplement13","type":"article","sectionId":"technology","sectionName":"Technology","webPublicationDate":"1999-01-28T03:36:36Z","webTitle":"Japan reels from future shock","webUrl":"https://www.theguardian.com/technology/1999/jan/28/onlinesupplement13","apiUrl":"https://content.guardianapis.com/technology/1999/jan/28/onlinesupplement13","isHosted":false,"pillarId":"pillar/news","pillarName":"News"},{"id":"world/1996/aug/24/usa.motoring","type":"article","sectionId":"us-news","sectionName":"US news","webPublicationDate":"1996-08-24T11:09:57Z","webTitle":"Motor City turns on the power","webUrl":"https://www.theguardian.com/world/1996/aug/24/usa.motoring","apiUrl":"https://content.guardianapis.com/world/1996/aug/24/usa.motoring","isHosted":false,"pillarId":"pillar/news","pillarName":"News"}]}}