{"response":{"status":"ok","userTier":"developer","total":2435931,"startIndex":1,"pageSize":10,"currentPage":1,"pages":243594,"orderBy":"newest","results":[{"id":"sport/live/2023/jul/06/the-ashes-2023-england-v-australia-third-test-day-one-live-score-updates","type":"liveblog","sectionId":"sport","sectionName":"Sport","webPublicationDate":"2023-07-06T14:26:28Z","webTitle":"The Ashes 2023: England v Australia, third Test, day one – live","webUrl":"https://www.theguardian.com/sport/live/2023/jul/06/the-ashes-2023-england-v-australia-third-test-day-one-live-score-updates","apiUrl":"https://content.guardianapis.com/sport/live/2023/jul/06/the-ashes-2023-england-v-australia-third-test-day-one-live-score-updates","isHosted":false,"pillarId":"pillar/sport","pillarName":"Sport"},{"id":"sport/live/2023/jul/06/tour-de-france-2023-cycling-stage-six-tourmalet-live","type":"liveblog","sectionId":"sport","sectionName":"Sport","webPublicationDate":"2023-07-06T14:26:01Z","webTitle":"Tour de France: riders head for stage six summit finish after Tourmalet test – live","webUrl":"https://www.theguardian.com/sport/live/2023/jul/06/tour-de-france-2023-cycling-stage-six-tourmalet-live","apiUrl":"https://content.guardianapis.com/sport/live/2023/jul/06/tour-de-france-2023-cycling-stage-six-tourmalet-live","isHosted":false,"pillarId":"pillar/sport","pillarName":"Sport"},{"id":"world/live/2023/jul/06/russia-ukraine-war-live-lviv-missile-strike","type":"liveblog","sectionId":"world","sectionName":"World news","webPublicationDate":"2023-07-06T14:25:44Z","webTitle":"Russia-Ukraine war live: Zelenskiy to discuss Black Sea grain deal with Erdoğan; Wagner leader in Russia, Lukashenko says","webUrl":"https://www.theguardian.com/world/live/2023/jul/06/russia-ukraine-war-live-lviv-missile-strike","apiUrl":"https://content.guardianapis.com/world/live/2023/jul/06/russia-ukraine-war-live-lviv-missile-strike","isHosted":false,"pillarId":"pillar/news","pillarName":"News"},{"id":"business/live/2023/jul/06/uk-banks-regulator-low-savings-rates-profiteering-claims-mortgages-bank-of-england-business-live","type":"liveblog","sectionId":"business","sectionName":"Business","webPublicationDate":"2023-07-06T14:25:43Z","webTitle":"Markets hit by fears over rising interest rates, as UK borrowing costs hit 15-year high – business live","webUrl":"https://www.theguardian.com/business/live/2023/jul/06/uk-banks-regulator-low-savings-rates-profiteering-claims-mortgages-bank-of-england-business-live","apiUrl":"https://content.guardianapis.com/business/live/2023/jul/06/uk-banks-regulator-low-savings-rates-profiteering-claims-mortgages-bank-of-england-business-live","isHosted":false,"pillarId":"pillar/news","pillarName":"News"},{"id":"politics/live/2023/jul/06/keir-starmer-class-ceiling-labour-debating-conservatives-chris-pincher-uk-politics-latest","type":"liveblog","sectionId":"politics","sectionName":"Politics","webPublicationDate":"2023-07-06T14:24:34Z","webTitle":"Government says it will comply with high court ruling saying it must give Covid inquiry all documents it wants – UK politics live","webUrl":"https://www.theguardian.com/politics/live/2023/jul/06/keir-starmer-class-ceiling-labour-debating-conservatives-chris-pincher-uk-politics-latest","apiUrl":"https://content.guardianapis.com/politics/live/2023/jul/06/keir-starmer-class-ceiling-labour-debating-conservatives-chris-pincher-uk-politics-latest","isHosted":false,"pillarId":"pillar/news","pillarName":"News"},{"id":"sport/live/2023/jul/06/wimbledon-tennis-andy-murray-tsitsipas-ruud-rybakina-day-four-live","type":"liveblog","sectionId":"sport","sectionName":"Sport","webPublicationDate":"2023-07-06T14:23:49Z","webTitle":"Wimbledon day four: Broady v Ruud, Rybakina and Murray to come – live","webUrl":"https://www.theguardian.com/sport/live/2023/jul/06/wimbledon-tennis-andy-murray-tsitsipas-ruud-rybakina-day-four-live","apiUrl":"https://content.guardianapis.com/sport/live/2023/jul/06/wimbledon-tennis-andy-murray-tsitsipas-ruud-rybakina-day-four-live","isHosted":false,"pillarId":"pillar/sport","pillarName":"Sport"},{"id":"us-news/live/2023/jul/06/trump-news-documents-mar-a-lago-walt-nauta-biden-2024-politics-live-updates","type":"liveblog","sectionId":"us-news","sectionName":"US news","webPublicationDate":"2023-07-06T14:17:18Z","webTitle":"Donald Trump valet Walt Nauta faces arraignment as new Mar-a-Lago search details emerge – live","webUrl":"https://www.theguardian.com/us-news/live/2023/jul/06/trump-news-documents-mar-a-lago-walt-nauta-biden-2024-politics-live-updates","apiUrl":"https://content.guardianapis.com/us-news/live/2023/jul/06/trump-news-documents-mar-a-lago-walt-nauta-biden-2024-politics-live-updates","isHosted":false,"pillarId":"pillar/news","pillarName":"News"},{"id":"music/2023/jul/06/verdi-un-ballo-in-maschera-review-freddie-de-tommaso-marek-janowski","type":"article","sectionId":"music","sectionName":"Music","webPublicationDate":"2023-07-06T14:00:04Z","webTitle":"Verdi: Un Ballo in Maschera review | Andrew Clements's classical album of the week","webUrl":"https://www.theguardian.com/music/2023/jul/06/verdi-un-ballo-in-maschera-review-freddie-de-tommaso-marek-janowski","apiUrl":"https://content.guardianapis.com/music/2023/jul/06/verdi-un-ballo-in-maschera-review-freddie-de-tommaso-marek-janowski","isHosted":false,"pillarId":"pillar/arts","pillarName":"Arts"},{"id":"politics/2023/jul/06/uk-shies-away-from-designating-iran-revolutionary-guards-as-terrorist-group","type":"article","sectionId":"politics","sectionName":"Politics","webPublicationDate":"2023-07-06T13:35:59Z","webTitle":"UK shies away from designating Iran’s Revolutionary Guards as terrorist group","webUrl":"https://www.theguardian.com/politics/2023/jul/06/uk-shies-away-from-designating-iran-revolutionary-guards-as-terrorist-group","apiUrl":"https://content.guardianapis.com/politics/2023/jul/06/uk-shies-away-from-designating-iran-revolutionary-guards-as-terrorist-group","isHosted":false,"pillarId":"pillar/news","pillarName":"News"},{"id":"uk-news/2023/jul/06/stonegate-pub-company-guilty-health-safety-breach-after-student-olivia-burt-death","type":"article","sectionId":"uk-news","sectionName":"UK news","webPublicationDate":"2023-07-06T13:34:35Z","webTitle":"UK’s largest pub firm guilty of health and safety breach over student’s death","webUrl":"https://www.theguardian.com/uk-news/2023/jul/06/stonegate-pub-company-guilty-health-safety-breach-after-student-olivia-burt-death","apiUrl":"https://content.guardianapis.com/uk-news/2023/jul/06/stonegate-pub-company-guilty-health-safety-breach-after-student-olivia-burt-death","isHosted":false,"pillarId":"pillar/news","pillarName":"News"}]}}