{"response":{"status":"ok","userTier":"developer","total":1829,"startIndex":5,"pageSize":1,"currentPage":5,"pages":1829,"orderBy":"newest","results":[{"id":"australia-news/2023/jun/13/australia-set-for-cheaper-solar-power-as-supply-of-panels-soars-says-report","type":"article","sectionId":"australia-news","sectionName":"Australia news","webPublicationDate":"2023-06-13T15:00:03Z","webTitle":"Australia set for cheaper solar power as supply of panels soars, says report","webUrl":"https://www.theguardian.com/australia-news/2023/jun/13/australia-set-for-cheaper-solar-power-as-supply-of-panels-soars-says-report","apiUrl":"https://content.guardianapis.com/australia-news/2023/jun/13/australia-set-for-cheaper-solar-power-as-supply-of-panels-soars-says-report","isHosted":false,"pillarId":"pillar/news","pillarName":"News"}]}}