{"response":{"status":"ok","userTier":"developer","total":2433552,"startIndex":1,"pageSize":10,"currentPage":1,"pages":243356,"orderBy":"newest","results":[{"id":"world/live/2023/jun/25/russia-ukraine-war-live-prigozhin-to-go-to-belarus-as-rebellion-ends-and-wagner-troops-withdraw-from-rostov","type":"liveblog","sectionId":"world","sectionName":"World news","webPublicationDate":"2023-06-25T13:34:09Z","webTitle":"Wagner rebellion ‘most ridiculous mutiny ever’, Ukrainian adviser says, as Putin’s authority hit – Russia-Ukraine war live","webUrl":"https://www.theguardian.com/world/live/2023/jun/25/russia-ukraine-war-live-prigozhin-to-go-to-belarus-as-rebellion-ends-and-wagner-troops-withdraw-from-rostov","apiUrl":"https://content.guardianapis.com/world/live/2023/jun/25/russia-ukraine-war-live-prigozhin-to-go-to-belarus-as-rebellion-ends-and-wagner-troops-withdraw-from-rostov","isHosted":false,"pillarId":"pillar/news","pillarName":"News"},{"id":"sport/live/2023/jun/25/womens-ashes-2023-england-vs-australia-live-updates-test-match-cricket-eng-v-aus-latest-score-scorecard-day-four-trent-bridge","type":"liveblog","sectionId":"sport","sectionName":"Sport","webPublicationDate":"2023-06-25T13:32:25Z","webTitle":"Women’s Ashes Test: England v Australia, day four – live","webUrl":"https://www.theguardian.com/sport/live/2023/jun/25/womens-ashes-2023-england-vs-australia-live-updates-test-match-cricket-eng-v-aus-latest-score-scorecard-day-four-trent-bridge","apiUrl":"https://content.guardianapis.com/sport/live/2023/jun/25/womens-ashes-2023-england-vs-australia-live-updates-test-match-cricket-eng-v-aus-latest-score-scorecard-day-four-trent-bridge","isHosted":false,"pillarId":"pillar/sport","pillarName":"Sport"},{"id":"sport/live/2023/jun/25/county-cricket-yorkshire-v-gloucestershire-surrey-v-lancashire-and-more-live","type":"liveblog","sectionId":"sport","sectionName":"Sport","webPublicationDate":"2023-06-25T13:27:22Z","webTitle":"County cricket: Yorkshire v Gloucestershire, Surrey v Lancashire and more – live","webUrl":"https://www.theguardian.com/sport/live/2023/jun/25/county-cricket-yorkshire-v-gloucestershire-surrey-v-lancashire-and-more-live","apiUrl":"https://content.guardianapis.com/sport/live/2023/jun/25/county-cricket-yorkshire-v-gloucestershire-surrey-v-lancashire-and-more-live","isHosted":false,"pillarId":"pillar/sport","pillarName":"Sport"},{"id":"music/live/2023/jun/25/sunday-at-glastonbury-2023-elton-john-follow-it-live","type":"liveblog","sectionId":"music","sectionName":"Music","webPublicationDate":"2023-06-25T13:24:24Z","webTitle":"Sunday at Glastonbury 2023: Sophie Ellis-Bextor, The Chicks and Elton John to come – follow it live!","webUrl":"https://www.theguardian.com/music/live/2023/jun/25/sunday-at-glastonbury-2023-elton-john-follow-it-live","apiUrl":"https://content.guardianapis.com/music/live/2023/jun/25/sunday-at-glastonbury-2023-elton-john-follow-it-live","isHosted":false,"pillarId":"pillar/arts","pillarName":"Arts"},{"id":"lifeandstyle/2023/jun/25/observer-killer-sudoku","type":"article","sectionId":"lifeandstyle","sectionName":"Life and style","webPublicationDate":"2023-06-25T13:11:24Z","webTitle":"Observer killer sudoku","webUrl":"https://www.theguardian.com/lifeandstyle/2023/jun/25/observer-killer-sudoku","apiUrl":"https://content.guardianapis.com/lifeandstyle/2023/jun/25/observer-killer-sudoku","isHosted":false,"pillarId":"pillar/lifestyle","pillarName":"Lifestyle"},{"id":"music/2023/jun/25/a-glastonbury-hygiene-diary","type":"article","sectionId":"music","sectionName":"Music","webPublicationDate":"2023-06-25T13:05:09Z","webTitle":"My Glastonbury hygiene diary: ‘I am just pushing dirt around my body’","webUrl":"https://www.theguardian.com/music/2023/jun/25/a-glastonbury-hygiene-diary","apiUrl":"https://content.guardianapis.com/music/2023/jun/25/a-glastonbury-hygiene-diary","isHosted":false,"pillarId":"pillar/arts","pillarName":"Arts"},{"id":"society/2023/jun/25/exhibition-celebrates-untold-stories-of-filipino-nurses-in-nhs","type":"article","sectionId":"society","sectionName":"Society","webPublicationDate":"2023-06-25T13:00:37Z","webTitle":"Exhibition celebrates untold stories of Filipino nurses in NHS","webUrl":"https://www.theguardian.com/society/2023/jun/25/exhibition-celebrates-untold-stories-of-filipino-nurses-in-nhs","apiUrl":"https://content.guardianapis.com/society/2023/jun/25/exhibition-celebrates-untold-stories-of-filipino-nurses-in-nhs","isHosted":false,"pillarId":"pillar/news","pillarName":"News"},{"id":"lifeandstyle/2023/jun/25/readers-reply-what-would-a-person-be-like-if-nothing-bad-had-ever-happened-to-them","type":"article","sectionId":"lifeandstyle","sectionName":"Life and style","webPublicationDate":"2023-06-25T13:00:37Z","webTitle":"Readers reply: what would a person be like if nothing bad had ever happened to them?","webUrl":"https://www.theguardian.com/lifeandstyle/2023/jun/25/readers-reply-what-would-a-person-be-like-if-nothing-bad-had-ever-happened-to-them","apiUrl":"https://content.guardianapis.com/lifeandstyle/2023/jun/25/readers-reply-what-would-a-person-be-like-if-nothing-bad-had-ever-happened-to-them","isHosted":false,"pillarId":"pillar/lifestyle","pillarName":"Lifestyle"},{"id":"fashion/2023/jun/25/older-female-models-struggle-for-work-as-brands-play-it-safe","type":"article","sectionId":"fashion","sectionName":"Fashion","webPublicationDate":"2023-06-25T13:00:36Z","webTitle":"‘We’re back to the 90s’: older female models struggle for work as brands play it safe post-Covid","webUrl":"https://www.theguardian.com/fashion/2023/jun/25/older-female-models-struggle-for-work-as-brands-play-it-safe","apiUrl":"https://content.guardianapis.com/fashion/2023/jun/25/older-female-models-struggle-for-work-as-brands-play-it-safe","isHosted":false,"pillarId":"pillar/lifestyle","pillarName":"Lifestyle"},{"id":"lifeandstyle/2023/jun/25/how-different-are-modern-humans-from-the-first-homo-sapiens","type":"article","sectionId":"lifeandstyle","sectionName":"Life and style","webPublicationDate":"2023-06-25T12:59:41Z","webTitle":"How different are modern humans from the first Homo sapiens?","webUrl":"https://www.theguardian.com/lifeandstyle/2023/jun/25/how-different-are-modern-humans-from-the-first-homo-sapiens","apiUrl":"https://content.guardianapis.com/lifeandstyle/2023/jun/25/how-different-are-modern-humans-from-the-first-homo-sapiens","isHosted":false,"pillarId":"pillar/lifestyle","pillarName":"Lifestyle"}]}}