{"response":{"status":"ok","userTier":"developer","total":4955,"startIndex":1,"pageSize":10,"currentPage":1,"pages":496,"orderBy":"relevance","results":[{"id":"business/2023/mar/07/jurgen-maier-the-anglo-austrian-invested-in-rebuilding-northern-englands-economy","type":"article","sectionId":"business","sectionName":"Business","webPublicationDate":"2023-03-07T14:00:05Z","webTitle":"Jürgen Maier: the Anglo-Austrian invested in rebuilding northern England’s economy","webUrl":"https://www.theguardian.com/business/2023/mar/07/jurgen-maier-the-anglo-austrian-invested-in-rebuilding-northern-englands-economy","apiUrl":"https://content.guardianapis.com/business/2023/mar/07/jurgen-maier-the-anglo-austrian-invested-in-rebuilding-northern-englands-economy","isHosted":false,"pillarId":"pillar/news","pillarName":"News"},{"id":"politics/2023/feb/05/trade-down-economy-sinking-support-falling-is-the-tide-finally-turning-on-brexit","type":"article","sectionId":"politics","sectionName":"Politics","webPublicationDate":"2023-02-05T07:00:16Z","webTitle":"Trade down, economy sinking, support falling: is the tide finally turning on Brexit?","webUrl":"https://www.theguardian.com/politics/2023/feb/05/trade-down-economy-sinking-support-falling-is-the-tide-finally-turning-on-brexit","apiUrl":"https://content.guardianapis.com/politics/2023/feb/05/trade-down-economy-sinking-support-falling-is-the-tide-finally-turning-on-brexit","isHosted":false,"pillarId":"pillar/news","pillarName":"News"},{"id":"politics/2022/jul/25/first-truss-sunak-tory-leadership-debate-five-key-takeaways","type":"article","sectionId":"politics","sectionName":"Politics","webPublicationDate":"2022-07-25T20:57:13Z","webTitle":"First Truss-Sunak Tory leadership debate: five key takeaways","webUrl":"https://www.theguardian.com/politics/2022/jul/25/first-truss-sunak-tory-leadership-debate-five-key-takeaways","apiUrl":"https://content.guardianapis.com/politics/2022/jul/25/first-truss-sunak-tory-leadership-debate-five-key-takeaways","isHosted":false,"pillarId":"pillar/news","pillarName":"News"},{"id":"commentisfree/2022/nov/04/the-guardian-view-on-brexit-and-the-economy-time-to-face-facts","type":"article","sectionId":"commentisfree","sectionName":"Opinion","webPublicationDate":"2022-11-04T18:30:28Z","webTitle":"The Guardian view on Brexit and the economy: time to face facts | Editorial","webUrl":"https://www.theguardian.com/commentisfree/2022/nov/04/the-guardian-view-on-brexit-and-the-economy-time-to-face-facts","apiUrl":"https://content.guardianapis.com/commentisfree/2022/nov/04/the-guardian-view-on-brexit-and-the-economy-time-to-face-facts","isHosted":false,"pillarId":"pillar/opinion","pillarName":"Opinion"},{"id":"politics/live/2023/mar/07/snp-leadership-debate-live-hamza-yousaf-kate-forbes-and-ash-regan-to-set-out-visions-for-scotland","type":"liveblog","sectionId":"politics","sectionName":"Politics","webPublicationDate":"2023-03-07T22:49:52Z","webTitle":"SNP leadership debate: Humza Yousaf, Kate Forbes and Ash Regan set out visions for Scotland — as it happened","webUrl":"https://www.theguardian.com/politics/live/2023/mar/07/snp-leadership-debate-live-hamza-yousaf-kate-forbes-and-ash-regan-to-set-out-visions-for-scotland","apiUrl":"https://content.guardianapis.com/politics/live/2023/mar/07/snp-leadership-debate-live-hamza-yousaf-kate-forbes-and-ash-regan-to-set-out-visions-for-scotland","isHosted":false,"pillarId":"pillar/news","pillarName":"News"},{"id":"politics/2022/jul/17/tory-leadership-race-five-key-takeaways-from-second-debate","type":"article","sectionId":"politics","sectionName":"Politics","webPublicationDate":"2022-07-17T19:57:27Z","webTitle":"Tory leadership race: five key takeaways from second debate","webUrl":"https://www.theguardian.com/politics/2022/jul/17/tory-leadership-race-five-key-takeaways-from-second-debate","apiUrl":"https://content.guardianapis.com/politics/2022/jul/17/tory-leadership-race-five-key-takeaways-from-second-debate","isHosted":false,"pillarId":"pillar/news","pillarName":"News"},{"id":"politics/2022/jul/26/rishi-sunak-tory-leadership-debate-aggressive-style-mansplaining","type":"article","sectionId":"politics","sectionName":"Politics","webPublicationDate":"2022-07-26T07:54:31Z","webTitle":"Rishi Sunak ‘aggressive’ in Tory leadership debate, say Truss supporters","webUrl":"https://www.theguardian.com/politics/2022/jul/26/rishi-sunak-tory-leadership-debate-aggressive-style-mansplaining","apiUrl":"https://content.guardianapis.com/politics/2022/jul/26/rishi-sunak-tory-leadership-debate-aggressive-style-mansplaining","isHosted":false,"pillarId":"pillar/news","pillarName":"News"},{"id":"politics/live/2022/jul/15/tory-leadership-race-penny-mordaunt-liz-truss-rishi-sunak-debates-uk-politics-latest","type":"liveblog","sectionId":"politics","sectionName":"Politics","webPublicationDate":"2022-07-15T22:36:14Z","webTitle":"Tory leadership debate: rivals discuss tax, energy, NHS, the green economy and trust in first televised head-to-head – as it happened","webUrl":"https://www.theguardian.com/politics/live/2022/jul/15/tory-leadership-race-penny-mordaunt-liz-truss-rishi-sunak-debates-uk-politics-latest","apiUrl":"https://content.guardianapis.com/politics/live/2022/jul/15/tory-leadership-race-penny-mordaunt-liz-truss-rishi-sunak-debates-uk-politics-latest","isHosted":false,"pillarId":"pillar/news","pillarName":"News"},{"id":"technology/2022/oct/14/ai-da-robot-sums-up-flawed-logic-lords-debate-ai","type":"article","sectionId":"technology","sectionName":"Technology","webPublicationDate":"2022-10-14T16:05:33Z","webTitle":"Ai-Da the robot sums up the flawed logic of Lords debate on AI","webUrl":"https://www.theguardian.com/technology/2022/oct/14/ai-da-robot-sums-up-flawed-logic-lords-debate-ai","apiUrl":"https://content.guardianapis.com/technology/2022/oct/14/ai-da-robot-sums-up-flawed-logic-lords-debate-ai","isHosted":false,"pillarId":"pillar/news","pillarName":"News"},{"id":"politics/2022/jul/25/truss-sunak-trade-blows-tv-debate-tory-leadership","type":"article","sectionId":"politics","sectionName":"Politics","webPublicationDate":"2022-07-25T21:45:35Z","webTitle":"Truss and Sunak trade blows in acrimonious first TV debate","webUrl":"https://www.theguardian.com/politics/2022/jul/25/truss-sunak-trade-blows-tv-debate-tory-leadership","apiUrl":"https://content.guardianapis.com/politics/2022/jul/25/truss-sunak-trade-blows-tv-debate-tory-leadership","isHosted":false,"pillarId":"pillar/news","pillarName":"News"}]}}