{"response":{"status":"ok","userTier":"developer","total":2424638,"startIndex":1,"pageSize":10,"currentPage":1,"pages":242464,"orderBy":"newest","results":[{"id":"world/live/2023/may/14/turkey-elections-live-vote-recep-tayyip-erdogan-kemal-klcdaroglu","type":"liveblog","sectionId":"world","sectionName":"World news","webPublicationDate":"2023-05-15T07:56:04Z","webTitle":"Turkey elections live: runoff increasingly likely amid competing claims from Erdoğan and Kılıçdaroğlu","webUrl":"https://www.theguardian.com/world/live/2023/may/14/turkey-elections-live-vote-recep-tayyip-erdogan-kemal-klcdaroglu","apiUrl":"https://content.guardianapis.com/world/live/2023/may/14/turkey-elections-live-vote-recep-tayyip-erdogan-kemal-klcdaroglu","isHosted":false,"pillarId":"pillar/news","pillarName":"News"},{"id":"business/live/2023/may/15/uk-avoid-recession-currys-profit-outlook-europe-forecasts-turkey-lira-business-live","type":"liveblog","sectionId":"business","sectionName":"Business","webPublicationDate":"2023-05-15T07:52:31Z","webTitle":"UK tipped to avoid recession; Vice files for bankruptcy protection – business live","webUrl":"https://www.theguardian.com/business/live/2023/may/15/uk-avoid-recession-currys-profit-outlook-europe-forecasts-turkey-lira-business-live","apiUrl":"https://content.guardianapis.com/business/live/2023/may/15/uk-avoid-recession-currys-profit-outlook-europe-forecasts-turkey-lira-business-live","isHosted":false,"pillarId":"pillar/news","pillarName":"News"},{"id":"australia-news/live/2023/may/15/australia-news-live-politics-housing-bill-rent-cost-of-living-budget-chalmers-welfare-china-farrell-albanese-dutton-updates-weather","type":"liveblog","sectionId":"australia-news","sectionName":"Australia news","webPublicationDate":"2023-05-15T07:52:16Z","webTitle":"Australia news live: Albanese suggests Dutton ‘trying to create some issues where they shouldn’t be’ with migration attacks","webUrl":"https://www.theguardian.com/australia-news/live/2023/may/15/australia-news-live-politics-housing-bill-rent-cost-of-living-budget-chalmers-welfare-china-farrell-albanese-dutton-updates-weather","apiUrl":"https://content.guardianapis.com/australia-news/live/2023/may/15/australia-news-live-politics-housing-bill-rent-cost-of-living-budget-chalmers-welfare-china-farrell-albanese-dutton-updates-weather","isHosted":false,"pillarId":"pillar/news","pillarName":"News"},{"id":"world/live/2023/may/15/russia-ukraine-war-latest-g7-reportedly-set-to-tighten-russia-sanctions-france-to-send-kyiv-military-aid-live","type":"liveblog","sectionId":"world","sectionName":"World news","webPublicationDate":"2023-05-15T07:40:28Z","webTitle":"Russia-Ukraine war latest: Zelenskiy to meet Sunak in London; France to send Kyiv military aid – live","webUrl":"https://www.theguardian.com/world/live/2023/may/15/russia-ukraine-war-latest-g7-reportedly-set-to-tighten-russia-sanctions-france-to-send-kyiv-military-aid-live","apiUrl":"https://content.guardianapis.com/world/live/2023/may/15/russia-ukraine-war-latest-g7-reportedly-set-to-tighten-russia-sanctions-france-to-send-kyiv-military-aid-live","isHosted":false,"pillarId":"pillar/news","pillarName":"News"},{"id":"world/2023/may/15/volodymyr-zelenskiy-to-meet-rishi-sunak-in-london-on-monday","type":"article","sectionId":"world","sectionName":"World news","webPublicationDate":"2023-05-15T07:32:49Z","webTitle":" Volodymyr Zelenskiy arrives in London to meet ‘my friend’ Rishi Sunak","webUrl":"https://www.theguardian.com/world/2023/may/15/volodymyr-zelenskiy-to-meet-rishi-sunak-in-london-on-monday","apiUrl":"https://content.guardianapis.com/world/2023/may/15/volodymyr-zelenskiy-to-meet-rishi-sunak-in-london-on-monday","isHosted":false,"pillarId":"pillar/news","pillarName":"News"},{"id":"sport/blog/2023/may/15/the-targeting-of-epsom-is-open-to-debate-but-the-right-to-peaceful-protest-is-not","type":"article","sectionId":"sport","sectionName":"Sport","webPublicationDate":"2023-05-15T07:00:18Z","webTitle":"The targeting of Epsom is open to debate – but the right to peaceful protest is not | Greg Wood","webUrl":"https://www.theguardian.com/sport/blog/2023/may/15/the-targeting-of-epsom-is-open-to-debate-but-the-right-to-peaceful-protest-is-not","apiUrl":"https://content.guardianapis.com/sport/blog/2023/may/15/the-targeting-of-epsom-is-open-to-debate-but-the-right-to-peaceful-protest-is-not","isHosted":false,"pillarId":"pillar/sport","pillarName":"Sport"},{"id":"football/2023/may/15/nottingham-forest-chelsea-arsenal-taiwo-awoniyi-serge-aurier","type":"article","sectionId":"football","sectionName":"Football","webPublicationDate":"2023-05-15T07:00:18Z","webTitle":"‘Everything is possible’: Nottingham Forest draw fire in fight for survival","webUrl":"https://www.theguardian.com/football/2023/may/15/nottingham-forest-chelsea-arsenal-taiwo-awoniyi-serge-aurier","apiUrl":"https://content.guardianapis.com/football/2023/may/15/nottingham-forest-chelsea-arsenal-taiwo-awoniyi-serge-aurier","isHosted":false,"pillarId":"pillar/sport","pillarName":"Sport"},{"id":"fashion/2023/may/15/can-a-bath-in-epsom-salt-help-me-get-more-beauty-sleep","type":"article","sectionId":"fashion","sectionName":"Fashion","webPublicationDate":"2023-05-15T07:00:17Z","webTitle":"Can a bath in epsom salt help me get more beauty sleep?","webUrl":"https://www.theguardian.com/fashion/2023/may/15/can-a-bath-in-epsom-salt-help-me-get-more-beauty-sleep","apiUrl":"https://content.guardianapis.com/fashion/2023/may/15/can-a-bath-in-epsom-salt-help-me-get-more-beauty-sleep","isHosted":false,"pillarId":"pillar/lifestyle","pillarName":"Lifestyle"},{"id":"uk-news/2023/may/15/isle-of-man-grow-cannabis-business-diversify-economy","type":"article","sectionId":"uk-news","sectionName":"UK news","webPublicationDate":"2023-05-15T07:00:17Z","webTitle":"Isle of Man to grow cannabis business to diversify economy","webUrl":"https://www.theguardian.com/uk-news/2023/may/15/isle-of-man-grow-cannabis-business-diversify-economy","apiUrl":"https://content.guardianapis.com/uk-news/2023/may/15/isle-of-man-grow-cannabis-business-diversify-economy","isHosted":false,"pillarId":"pillar/news","pillarName":"News"},{"id":"artanddesign/2023/may/15/a-case-of-heartbreak-i-prescribe-tracey-emins-neons-and-paula-regos-dancers","type":"article","sectionId":"artanddesign","sectionName":"Art and design","webPublicationDate":"2023-05-15T07:00:17Z","webTitle":"A case of heartbreak? I prescribe Tracey Emin’s neons and Paula Rego’s dancers","webUrl":"https://www.theguardian.com/artanddesign/2023/may/15/a-case-of-heartbreak-i-prescribe-tracey-emins-neons-and-paula-regos-dancers","apiUrl":"https://content.guardianapis.com/artanddesign/2023/may/15/a-case-of-heartbreak-i-prescribe-tracey-emins-neons-and-paula-regos-dancers","isHosted":false,"pillarId":"pillar/arts","pillarName":"Arts"}]}}