{"response":{"status":"ok","userTier":"developer","total":2425812,"startIndex":32,"pageSize":31,"currentPage":2,"pages":78252,"orderBy":"newest","results":[{"id":"uk-news/2023/may/20/londons-primrose-hill-to-close-gates-at-night-after-row-that-divided-locals","type":"article","sectionId":"uk-news","sectionName":"UK news","webPublicationDate":"2023-05-20T08:00:52Z","webTitle":"London’s Primrose Hill to close gates at night after row that divided locals ","webUrl":"https://www.theguardian.com/uk-news/2023/may/20/londons-primrose-hill-to-close-gates-at-night-after-row-that-divided-locals","apiUrl":"https://content.guardianapis.com/uk-news/2023/may/20/londons-primrose-hill-to-close-gates-at-night-after-row-that-divided-locals","isHosted":false,"pillarId":"pillar/news","pillarName":"News"},{"id":"books/2023/may/20/rebecca-f-kuang-who-has-the-right-to-tell-a-story-its-the-wrong-question-to-ask","type":"article","sectionId":"books","sectionName":"Books","webPublicationDate":"2023-05-20T08:00:51Z","webTitle":"Rebecca F Kuang: ‘Who has the right to tell a story? It’s the wrong question to ask’","webUrl":"https://www.theguardian.com/books/2023/may/20/rebecca-f-kuang-who-has-the-right-to-tell-a-story-its-the-wrong-question-to-ask","apiUrl":"https://content.guardianapis.com/books/2023/may/20/rebecca-f-kuang-who-has-the-right-to-tell-a-story-its-the-wrong-question-to-ask","isHosted":false,"pillarId":"pillar/arts","pillarName":"Arts"},{"id":"australia-news/2023/may/20/stan-grant-faced-unrelenting-racism-fellow-abc-panellists-say-as-scale-of-conservative-coverage-revealed","type":"article","sectionId":"australia-news","sectionName":"Australia news","webPublicationDate":"2023-05-20T08:00:30Z","webTitle":"Stan Grant faced ‘unrelenting racism’, fellow ABC panellists say, as scale of conservative coverage revealed","webUrl":"https://www.theguardian.com/australia-news/2023/may/20/stan-grant-faced-unrelenting-racism-fellow-abc-panellists-say-as-scale-of-conservative-coverage-revealed","apiUrl":"https://content.guardianapis.com/australia-news/2023/may/20/stan-grant-faced-unrelenting-racism-fellow-abc-panellists-say-as-scale-of-conservative-coverage-revealed","isHosted":false,"pillarId":"pillar/news","pillarName":"News"},{"id":"australia-news/live/2023/may/20/australia-news-live-anthony-albanese-g7-abc-stan-grant-clare-nowland-nsw-police-taser","type":"liveblog","sectionId":"australia-news","sectionName":"Australia news","webPublicationDate":"2023-05-20T07:49:36Z","webTitle":"PM holds meetings with world leaders on second day of G7 summit in Hiroshima – as it happened","webUrl":"https://www.theguardian.com/australia-news/live/2023/may/20/australia-news-live-anthony-albanese-g7-abc-stan-grant-clare-nowland-nsw-police-taser","apiUrl":"https://content.guardianapis.com/australia-news/live/2023/may/20/australia-news-live-anthony-albanese-g7-abc-stan-grant-clare-nowland-nsw-police-taser","isHosted":false,"pillarId":"pillar/news","pillarName":"News"},{"id":"sport/2023/may/20/leinster-need-to-the-find-answer-to-hefty-challenge-of-ronan-o-gara-la-rochelle-big-men-rugby-union","type":"article","sectionId":"sport","sectionName":"Sport","webPublicationDate":"2023-05-20T07:00:52Z","webTitle":"Leinster need to find the answer to hefty challenge of Ronan O'Gara's big men | Ugo Monye","webUrl":"https://www.theguardian.com/sport/2023/may/20/leinster-need-to-the-find-answer-to-hefty-challenge-of-ronan-o-gara-la-rochelle-big-men-rugby-union","apiUrl":"https://content.guardianapis.com/sport/2023/may/20/leinster-need-to-the-find-answer-to-hefty-challenge-of-ronan-o-gara-la-rochelle-big-men-rugby-union","isHosted":false,"pillarId":"pillar/sport","pillarName":"Sport"},{"id":"football/2023/may/20/readers-on-manchester-city-pep-guardiola-abu-dhabi","type":"article","sectionId":"football","sectionName":"Football","webPublicationDate":"2023-05-20T07:00:52Z","webTitle":"‘There’s a cognitive dissonance for me as a fan’: readers on Manchester City","webUrl":"https://www.theguardian.com/football/2023/may/20/readers-on-manchester-city-pep-guardiola-abu-dhabi","apiUrl":"https://content.guardianapis.com/football/2023/may/20/readers-on-manchester-city-pep-guardiola-abu-dhabi","isHosted":false,"pillarId":"pillar/sport","pillarName":"Sport"},{"id":"football/2023/may/20/under-20-world-cup-a-guide-to-players-and-coaches-to-look-out-for","type":"article","sectionId":"football","sectionName":"Football","webPublicationDate":"2023-05-20T07:00:51Z","webTitle":"Under-20 World Cup: a guide to players and coaches to look out for","webUrl":"https://www.theguardian.com/football/2023/may/20/under-20-world-cup-a-guide-to-players-and-coaches-to-look-out-for","apiUrl":"https://content.guardianapis.com/football/2023/may/20/under-20-world-cup-a-guide-to-players-and-coaches-to-look-out-for","isHosted":false,"pillarId":"pillar/sport","pillarName":"Sport"},{"id":"film/2023/may/20/streaming-cocaine-bear-and-the-best-so-bad-theyre-good-films","type":"article","sectionId":"film","sectionName":"Film","webPublicationDate":"2023-05-20T07:00:51Z","webTitle":"Streaming: Cocaine Bear and the best ‘so bad they’re good’ films","webUrl":"https://www.theguardian.com/film/2023/may/20/streaming-cocaine-bear-and-the-best-so-bad-theyre-good-films","apiUrl":"https://content.guardianapis.com/film/2023/may/20/streaming-cocaine-bear-and-the-best-so-bad-theyre-good-films","isHosted":false,"pillarId":"pillar/arts","pillarName":"Arts"},{"id":"money/2023/may/20/uk-mortgages-time-to-switch-and-fix-to-save-up-to-400-a-month","type":"article","sectionId":"money","sectionName":"Money","webPublicationDate":"2023-05-20T07:00:51Z","webTitle":"UK mortgages: time to switch and fix to save up to £400 a month","webUrl":"https://www.theguardian.com/money/2023/may/20/uk-mortgages-time-to-switch-and-fix-to-save-up-to-400-a-month","apiUrl":"https://content.guardianapis.com/money/2023/may/20/uk-mortgages-time-to-switch-and-fix-to-save-up-to-400-a-month","isHosted":false,"pillarId":"pillar/lifestyle","pillarName":"Lifestyle"},{"id":"technology/2023/may/20/labour-should-pledge-11bn-to-build-britgpt-ai-thinktank-says","type":"article","sectionId":"technology","sectionName":"Technology","webPublicationDate":"2023-05-20T07:00:51Z","webTitle":"Labour should pledge £11bn to build ‘BritGPT’ AI, thinktank says","webUrl":"https://www.theguardian.com/technology/2023/may/20/labour-should-pledge-11bn-to-build-britgpt-ai-thinktank-says","apiUrl":"https://content.guardianapis.com/technology/2023/may/20/labour-should-pledge-11bn-to-build-britgpt-ai-thinktank-says","isHosted":false,"pillarId":"pillar/news","pillarName":"News"},{"id":"fashion/2023/may/20/a-new-breed-of-lash-serums-give-a-boost-on-a-budget","type":"article","sectionId":"fashion","sectionName":"Fashion","webPublicationDate":"2023-05-20T07:00:50Z","webTitle":"A new breed of lash serums give a boost on a budget  | Sali Hughes","webUrl":"https://www.theguardian.com/fashion/2023/may/20/a-new-breed-of-lash-serums-give-a-boost-on-a-budget","apiUrl":"https://content.guardianapis.com/fashion/2023/may/20/a-new-breed-of-lash-serums-give-a-boost-on-a-budget","isHosted":false,"pillarId":"pillar/lifestyle","pillarName":"Lifestyle"},{"id":"commentisfree/2023/may/20/vice-and-buzzfeed-were-meant-to-be-the-future-of-news-what-happened","type":"article","sectionId":"commentisfree","sectionName":"Opinion","webPublicationDate":"2023-05-20T07:00:50Z","webTitle":"Vice and BuzzFeed were meant to be the future of news. What happened? | Jane Martinson","webUrl":"https://www.theguardian.com/commentisfree/2023/may/20/vice-and-buzzfeed-were-meant-to-be-the-future-of-news-what-happened","apiUrl":"https://content.guardianapis.com/commentisfree/2023/may/20/vice-and-buzzfeed-were-meant-to-be-the-future-of-news-what-happened","isHosted":false,"pillarId":"pillar/opinion","pillarName":"Opinion"},{"id":"books/2023/may/20/big-swiss-by-jen-beagin-review-fluffy-sex-comedy-with-a-dark-underbelly","type":"article","sectionId":"books","sectionName":"Books","webPublicationDate":"2023-05-20T06:30:50Z","webTitle":"Big Swiss by Jen Beagin review – fluffy sex comedy with a dark underbelly","webUrl":"https://www.theguardian.com/books/2023/may/20/big-swiss-by-jen-beagin-review-fluffy-sex-comedy-with-a-dark-underbelly","apiUrl":"https://content.guardianapis.com/books/2023/may/20/big-swiss-by-jen-beagin-review-fluffy-sex-comedy-with-a-dark-underbelly","isHosted":false,"pillarId":"pillar/arts","pillarName":"Arts"},{"id":"tv-and-radio/2023/may/20/poker-face-natasha-lyonnes-review-sky-max-peacock-rian-johnson","type":"article","sectionId":"tv-and-radio","sectionName":"Television & radio","webPublicationDate":"2023-05-20T06:00:51Z","webTitle":"Poker Face: Natasha Lyonne’s perfect detective show turns up the fun-o-meter until it explodes","webUrl":"https://www.theguardian.com/tv-and-radio/2023/may/20/poker-face-natasha-lyonnes-review-sky-max-peacock-rian-johnson","apiUrl":"https://content.guardianapis.com/tv-and-radio/2023/may/20/poker-face-natasha-lyonnes-review-sky-max-peacock-rian-johnson","isHosted":false,"pillarId":"pillar/arts","pillarName":"Arts"},{"id":"books/2023/may/20/trumps-sport-chris-cillizza-presidents-book","type":"article","sectionId":"books","sectionName":"Books","webPublicationDate":"2023-05-20T06:00:51Z","webTitle":"‘Trump’s not a good sport’: Chris Cillizza on presidents at play","webUrl":"https://www.theguardian.com/books/2023/may/20/trumps-sport-chris-cillizza-presidents-book","apiUrl":"https://content.guardianapis.com/books/2023/may/20/trumps-sport-chris-cillizza-presidents-book","isHosted":false,"pillarId":"pillar/arts","pillarName":"Arts"},{"id":"film/2023/may/20/halle-bailey-the-little-mermaid-interview-as-a-child-seeing-a-black-ariel-would-have-changed-my-life","type":"article","sectionId":"film","sectionName":"Film","webPublicationDate":"2023-05-20T06:00:51Z","webTitle":"The Little Mermaid’s Halle Bailey: ‘As a child, seeing a black Ariel would have changed my life’ ","webUrl":"https://www.theguardian.com/film/2023/may/20/halle-bailey-the-little-mermaid-interview-as-a-child-seeing-a-black-ariel-would-have-changed-my-life","apiUrl":"https://content.guardianapis.com/film/2023/may/20/halle-bailey-the-little-mermaid-interview-as-a-child-seeing-a-black-ariel-would-have-changed-my-life","isHosted":false,"pillarId":"pillar/arts","pillarName":"Arts"},{"id":"environment/2023/may/20/revealed-warning-to-ministers-over-privatised-water-kept-secret-since-2002","type":"article","sectionId":"environment","sectionName":"Environment","webPublicationDate":"2023-05-20T06:00:50Z","webTitle":"Revealed: warning to ministers over privatised water kept secret since 2002","webUrl":"https://www.theguardian.com/environment/2023/may/20/revealed-warning-to-ministers-over-privatised-water-kept-secret-since-2002","apiUrl":"https://content.guardianapis.com/environment/2023/may/20/revealed-warning-to-ministers-over-privatised-water-kept-secret-since-2002","isHosted":false,"pillarId":"pillar/news","pillarName":"News"},{"id":"lifeandstyle/2023/may/20/which-hell-raising-actor-kept-a-suite-at-the-savoy-the-saturday-quiz","type":"article","sectionId":"lifeandstyle","sectionName":"Life and style","webPublicationDate":"2023-05-20T06:00:49Z","webTitle":"Which hell-raising actor kept a suite at the Savoy? The Saturday quiz","webUrl":"https://www.theguardian.com/lifeandstyle/2023/may/20/which-hell-raising-actor-kept-a-suite-at-the-savoy-the-saturday-quiz","apiUrl":"https://content.guardianapis.com/lifeandstyle/2023/may/20/which-hell-raising-actor-kept-a-suite-at-the-savoy-the-saturday-quiz","isHosted":false,"pillarId":"pillar/lifestyle","pillarName":"Lifestyle"},{"id":"society/2023/may/20/drug-hot-flushes-transform-menopause-treatment-doctors-fezolinetant","type":"article","sectionId":"society","sectionName":"Society","webPublicationDate":"2023-05-20T06:00:49Z","webTitle":"Drug for hot flushes will transform menopause treatment, doctors say","webUrl":"https://www.theguardian.com/society/2023/may/20/drug-hot-flushes-transform-menopause-treatment-doctors-fezolinetant","apiUrl":"https://content.guardianapis.com/society/2023/may/20/drug-hot-flushes-transform-menopause-treatment-doctors-fezolinetant","isHosted":false,"pillarId":"pillar/news","pillarName":"News"},{"id":"travel/2023/may/20/the-key-to-an-unforgettable-holiday-just-focus-on-the-food-felicity-cloake","type":"article","sectionId":"travel","sectionName":"Travel","webPublicationDate":"2023-05-20T06:00:49Z","webTitle":"The key to an unforgettable holiday? Just focus on the food | Felicity Cloake","webUrl":"https://www.theguardian.com/travel/2023/may/20/the-key-to-an-unforgettable-holiday-just-focus-on-the-food-felicity-cloake","apiUrl":"https://content.guardianapis.com/travel/2023/may/20/the-key-to-an-unforgettable-holiday-just-focus-on-the-food-felicity-cloake","isHosted":false,"pillarId":"pillar/lifestyle","pillarName":"Lifestyle"},{"id":"food/2023/may/20/horses-los-angeles-restaurant-allegations-chefs","type":"article","sectionId":"food","sectionName":"Food","webPublicationDate":"2023-05-20T05:30:48Z","webTitle":"LA’s Horses restaurant draws a crowd despite allegations against chefs","webUrl":"https://www.theguardian.com/food/2023/may/20/horses-los-angeles-restaurant-allegations-chefs","apiUrl":"https://content.guardianapis.com/food/2023/may/20/horses-los-angeles-restaurant-allegations-chefs","isHosted":false,"pillarId":"pillar/lifestyle","pillarName":"Lifestyle"},{"id":"lifeandstyle/2023/may/20/blind-date-giles-sarah","type":"article","sectionId":"lifeandstyle","sectionName":"Life and style","webPublicationDate":"2023-05-20T05:00:49Z","webTitle":"Blind date: ‘I banged my head on the table I was laughing so hard’","webUrl":"https://www.theguardian.com/lifeandstyle/2023/may/20/blind-date-giles-sarah","apiUrl":"https://content.guardianapis.com/lifeandstyle/2023/may/20/blind-date-giles-sarah","isHosted":false,"pillarId":"pillar/lifestyle","pillarName":"Lifestyle"},{"id":"food/2023/may/20/how-to-turn-old-floury-apples-into-a-glorious-spiced-fruit-butter-recipe-zero-waste-cooking","type":"article","sectionId":"food","sectionName":"Food","webPublicationDate":"2023-05-20T05:00:49Z","webTitle":"How to turn old, floury apples into a glorious spiced fruit butter – recipe | Waste not","webUrl":"https://www.theguardian.com/food/2023/may/20/how-to-turn-old-floury-apples-into-a-glorious-spiced-fruit-butter-recipe-zero-waste-cooking","apiUrl":"https://content.guardianapis.com/food/2023/may/20/how-to-turn-old-floury-apples-into-a-glorious-spiced-fruit-butter-recipe-zero-waste-cooking","isHosted":false,"pillarId":"pillar/lifestyle","pillarName":"Lifestyle"},{"id":"uk-news/2023/may/20/couple-get-payout-water-buffaloes-fall-into-essex-swimming-pool","type":"article","sectionId":"uk-news","sectionName":"UK news","webPublicationDate":"2023-05-20T05:00:49Z","webTitle":"Couple get payout after water buffaloes fall into Essex swimming pool","webUrl":"https://www.theguardian.com/uk-news/2023/may/20/couple-get-payout-water-buffaloes-fall-into-essex-swimming-pool","apiUrl":"https://content.guardianapis.com/uk-news/2023/may/20/couple-get-payout-water-buffaloes-fall-into-essex-swimming-pool","isHosted":false,"pillarId":"pillar/news","pillarName":"News"},{"id":"lifeandstyle/ng-interactive/2023/may/20/teenage-shopping-with-your-mum-edith-pritchett-cartoon","type":"interactive","sectionId":"lifeandstyle","sectionName":"Life and style","webPublicationDate":"2023-05-20T05:00:49Z","webTitle":"The hell of teenage shopping with your mum: the Edith Pritchett cartoon","webUrl":"https://www.theguardian.com/lifeandstyle/ng-interactive/2023/may/20/teenage-shopping-with-your-mum-edith-pritchett-cartoon","apiUrl":"https://content.guardianapis.com/lifeandstyle/ng-interactive/2023/may/20/teenage-shopping-with-your-mum-edith-pritchett-cartoon","isHosted":false,"pillarId":"pillar/lifestyle","pillarName":"Lifestyle"},{"id":"tv-and-radio/2023/may/20/tv-tonight-a-totally-charming-norwegian-drama-about-a-cancer-diagnosis","type":"article","sectionId":"tv-and-radio","sectionName":"Television & radio","webPublicationDate":"2023-05-20T05:00:48Z","webTitle":"TV tonight: a totally charming Norwegian drama about a cancer diagnosis","webUrl":"https://www.theguardian.com/tv-and-radio/2023/may/20/tv-tonight-a-totally-charming-norwegian-drama-about-a-cancer-diagnosis","apiUrl":"https://content.guardianapis.com/tv-and-radio/2023/may/20/tv-tonight-a-totally-charming-norwegian-drama-about-a-cancer-diagnosis","isHosted":false,"pillarId":"pillar/arts","pillarName":"Arts"},{"id":"lifeandstyle/2023/may/20/tim-dowling-a-birdsong-app-gives-my-wife-more-ways-to-prove-me-wrong","type":"article","sectionId":"lifeandstyle","sectionName":"Life and style","webPublicationDate":"2023-05-20T05:00:48Z","webTitle":"Tim Dowling: a birdsong app gives my wife more ways to prove me wrong","webUrl":"https://www.theguardian.com/lifeandstyle/2023/may/20/tim-dowling-a-birdsong-app-gives-my-wife-more-ways-to-prove-me-wrong","apiUrl":"https://content.guardianapis.com/lifeandstyle/2023/may/20/tim-dowling-a-birdsong-app-gives-my-wife-more-ways-to-prove-me-wrong","isHosted":false,"pillarId":"pillar/lifestyle","pillarName":"Lifestyle"},{"id":"us-news/2023/may/19/debt-ceiling-talks-suspended-mccarthy-biden","type":"article","sectionId":"us-news","sectionName":"US news","webPublicationDate":"2023-05-20T01:58:08Z","webTitle":"Debt ceiling talks briefly resume as US default deadline creeps closer","webUrl":"https://www.theguardian.com/us-news/2023/may/19/debt-ceiling-talks-suspended-mccarthy-biden","apiUrl":"https://content.guardianapis.com/us-news/2023/may/19/debt-ceiling-talks-suspended-mccarthy-biden","isHosted":false,"pillarId":"pillar/news","pillarName":"News"},{"id":"australia-news/2023/may/20/tiktok-australia-expands-trial-of-gambling-advertising-despite-widespread-criticism","type":"article","sectionId":"australia-news","sectionName":"Australia news","webPublicationDate":"2023-05-20T00:00:42Z","webTitle":"TikTok Australia expands trial of gambling advertising despite widespread criticism","webUrl":"https://www.theguardian.com/australia-news/2023/may/20/tiktok-australia-expands-trial-of-gambling-advertising-despite-widespread-criticism","apiUrl":"https://content.guardianapis.com/australia-news/2023/may/20/tiktok-australia-expands-trial-of-gambling-advertising-despite-widespread-criticism","isHosted":false,"pillarId":"pillar/news","pillarName":"News"},{"id":"artanddesign/2023/may/20/how-long-have-i-been-sitting-here-naked-the-woozy-not-dreadful-experience-of-being-a-life-model","type":"article","sectionId":"artanddesign","sectionName":"Art and design","webPublicationDate":"2023-05-20T00:00:41Z","webTitle":"‘How long have I been sitting here naked?’: the woozy, not-dreadful experience of being a life model","webUrl":"https://www.theguardian.com/artanddesign/2023/may/20/how-long-have-i-been-sitting-here-naked-the-woozy-not-dreadful-experience-of-being-a-life-model","apiUrl":"https://content.guardianapis.com/artanddesign/2023/may/20/how-long-have-i-been-sitting-here-naked-the-woozy-not-dreadful-experience-of-being-a-life-model","isHosted":false,"pillarId":"pillar/arts","pillarName":"Arts"},{"id":"australia-news/2023/may/20/sydney-families-are-being-priced-into-apartment-living-but-even-then-their-options-are-limited","type":"article","sectionId":"australia-news","sectionName":"Australia news","webPublicationDate":"2023-05-20T00:00:41Z","webTitle":"Sydney families are being priced into apartment living – but even then, their options are limited","webUrl":"https://www.theguardian.com/australia-news/2023/may/20/sydney-families-are-being-priced-into-apartment-living-but-even-then-their-options-are-limited","apiUrl":"https://content.guardianapis.com/australia-news/2023/may/20/sydney-families-are-being-priced-into-apartment-living-but-even-then-their-options-are-limited","isHosted":false,"pillarId":"pillar/news","pillarName":"News"}]}}